<?xml version="1.0" encoding="UTF-8" standalone="no"?>
<!-- Created by diasvg.py -->
<svg width="38.884cm" height="54.968cm" viewBox="5.716 1.150 44.600 56.118"
 xmlns="http://www.w3.org/2000/svg"
 xmlns:xlink="http://www.w3.org/1999/xlink">
<rect x="18.650" y="1.200" width="19.150" height="2.900" fill="#FFDA00" stroke="none" stroke-width="0"/>
<rect x="18.650" y="1.200" width="19.150" height="2.900" fill="none" stroke="#000000" stroke-width="0.100" />
<text x="28.225" y="2.845"  fill="#000000" text-anchor="middle" font-size="0.80" font-family="sans" font-style="normal" font-weight="400">
util.mvc.updateView(container(/el), [model])</text>
<polygon fill="#FFDA00" stroke="none" stroke-width="0.100" points="28.250,30.861 32.728,33.100 28.250,35.339 23.772,33.100 "/>
<polygon fill="none" stroke="#000000" stroke-width="0.100"  points="28.250,30.861 32.728,33.100 28.250,35.339 23.772,33.100 "/>
<text x="28.250" y="33.295"  fill="#000000" text-anchor="middle" font-size="0.80" font-family="sans" font-style="normal" font-weight="400">
Setter present?</text>
<rect x="5.915" y="37.550" width="20.035" height="3.700" fill="#D8E5E5" stroke="none" stroke-width="0"/>
<rect x="5.915" y="37.550" width="20.035" height="3.700" fill="none" stroke="#000000" stroke-width="0.100" />
<text x="15.932" y="39.195"  fill="#000000" text-anchor="middle" font-size="0.80" font-family="sans" font-style="normal" font-weight="400">
Retrieve setter function (setter):</text>
<text x="15.932" y="39.995"  fill="#000000" text-anchor="middle" font-size="0.80" font-family="sans" font-style="normal" font-weight="400">
util.obj.getPropVal(setter, app.mvcV2MSetters)</text>
<rect x="12.500" y="52.050" width="6.450" height="2.900" fill="#ADD8E6" stroke="none" stroke-width="0"/>
<rect x="12.500" y="52.050" width="6.450" height="2.900" fill="none" stroke="#000000" stroke-width="0.100" />
<text x="15.725" y="53.695"  fill="#000000" text-anchor="middle" font-size="0.80" font-family="sans" font-style="normal" font-weight="400">
setter(el)</text>
<rect x="30.050" y="37.650" width="14.500" height="3.700" fill="#D8E5E5" stroke="none" stroke-width="0"/>
<rect x="30.050" y="37.650" width="14.500" height="3.700" fill="none" stroke="#000000" stroke-width="0.100" />
<text x="37.300" y="39.295"  fill="#000000" text-anchor="middle" font-size="0.80" font-family="sans" font-style="normal" font-weight="400">
Retrieve the value:</text>
<text x="37.300" y="40.095"  fill="#000000" text-anchor="middle" font-size="0.80" font-family="sans" font-style="normal" font-weight="400">
util.obj.getPropVal(model, app)</text>
<ellipse cx="23.933" cy="46.692" rx="3.199" ry="1.494" fill="#FFDA00" stroke="none"  /><ellipse cx="23.933" cy="46.692" rx="3.199" ry="1.494" fill="none" stroke="#000000"  stroke-width="0.100" /><text x="23.933" y="46.887"  fill="#000000" text-anchor="middle" font-size="0.80" font-family="sans" font-style="normal" font-weight="400">
updateView()</text>
<line x1="28.250" y1="4.143" x2="28.306" y2="7.551" stroke="#000000" stroke-width="0.100" />
<polygon fill="#000000" stroke="none" stroke-width="0.100" points="28.312,7.926 28.054,7.430 28.306,7.551 28.554,7.422 "/>
<polygon fill="none" stroke="#000000" stroke-width="0.100"  points="28.312,7.926 28.054,7.430 28.306,7.551 28.554,7.422 "/>
<line x1="32.462" y1="47.989" x2="35.963" y2="52.726" stroke="#000000" stroke-width="0.100" />
<polygon fill="#000000" stroke="none" stroke-width="0.100" points="36.186,53.028 35.688,52.774 35.963,52.726 36.090,52.477 "/>
<polygon fill="none" stroke="#000000" stroke-width="0.100"  points="36.186,53.028 35.688,52.774 35.963,52.726 36.090,52.477 "/>
<ellipse cx="28.039" cy="26.299" rx="3.199" ry="1.494" fill="#FFDA00" stroke="none"  /><ellipse cx="28.039" cy="26.299" rx="3.199" ry="1.494" fill="none" stroke="#000000"  stroke-width="0.100" /><text x="28.039" y="26.494"  fill="#000000" text-anchor="middle" font-size="0.80" font-family="sans" font-style="normal" font-weight="400">
updateView()</text>
<line x1="28.087" y1="27.841" x2="28.165" y2="30.360" stroke="#000000" stroke-width="0.100" />
<polygon fill="#000000" stroke="none" stroke-width="0.100" points="28.177,30.735 27.911,30.243 28.165,30.360 28.411,30.228 "/>
<polygon fill="none" stroke="#000000" stroke-width="0.100"  points="28.177,30.735 27.911,30.243 28.165,30.360 28.411,30.228 "/>
<line x1="30.146" y1="34.441" x2="34.215" y2="37.319" stroke="#000000" stroke-width="0.100" />
<polygon fill="#000000" stroke="none" stroke-width="0.100" points="34.521,37.535 33.969,37.450 34.215,37.319 34.258,37.042 "/>
<polygon fill="none" stroke="#000000" stroke-width="0.100"  points="34.521,37.535 33.969,37.450 34.215,37.319 34.258,37.042 "/>
<line x1="25.987" y1="34.258" x2="20.081" y2="37.278" stroke="#000000" stroke-width="0.100" />
<polygon fill="#000000" stroke="none" stroke-width="0.100" points="19.747,37.449 20.078,36.999 20.081,37.278 20.306,37.444 "/>
<polygon fill="none" stroke="#000000" stroke-width="0.100"  points="19.747,37.449 20.078,36.999 20.081,37.278 20.306,37.444 "/>
<line x1="22.325" y1="48.026" x2="17.908" y2="51.689" stroke="#000000" stroke-width="0.100" />
<polygon fill="#000000" stroke="none" stroke-width="0.100" points="17.619,51.929 17.845,51.417 17.908,51.689 18.164,51.802 "/>
<polygon fill="none" stroke="#000000" stroke-width="0.100"  points="17.619,51.929 17.845,51.417 17.908,51.689 18.164,51.802 "/>
<line x1="18.017" y1="41.300" x2="22.079" y2="45.002" stroke="#000000" stroke-width="0.100" />
<polygon fill="#000000" stroke="none" stroke-width="0.100" points="22.356,45.255 21.818,45.103 22.079,45.002 22.155,44.733 "/>
<polygon fill="none" stroke="#000000" stroke-width="0.100"  points="22.356,45.255 21.818,45.103 22.079,45.002 22.155,44.733 "/>
<rect x="31.943" y="35.647" width="0.873" height="0.748" fill="#FFFFFF" stroke="none" stroke-width="0"/>
<text x="32.380" y="36.242"  fill="#000000" text-anchor="middle" font-size="0.80" font-family="sans" font-style="normal" font-weight="400">
No</text>
<rect x="22.301" y="35.505" width="1.032" height="0.748" fill="#FFFFFF" stroke="none" stroke-width="0"/>
<text x="22.817" y="36.100"  fill="#000000" text-anchor="middle" font-size="0.80" font-family="sans" font-style="normal" font-weight="400">
Yes</text>
<polygon fill="#FFDA00" stroke="none" stroke-width="0.100" points="28.353,8.062 32.182,10.413 28.353,12.763 24.524,10.413 "/>
<polygon fill="none" stroke="#000000" stroke-width="0.100"  points="28.353,8.062 32.182,10.413 28.353,12.763 24.524,10.413 "/>
<text x="28.353" y="10.608"  fill="#000000" text-anchor="middle" font-size="0.80" font-family="sans" font-style="normal" font-weight="400">
Model given?</text>
<line x1="29.765" y1="11.946" x2="33.903" y2="16.442" stroke="#000000" stroke-width="0.100" />
<polygon fill="#000000" stroke="none" stroke-width="0.100" points="34.157,16.718 33.635,16.520 33.903,16.442 34.003,16.181 "/>
<polygon fill="none" stroke="#000000" stroke-width="0.100"  points="34.157,16.718 33.635,16.520 33.903,16.442 34.003,16.181 "/>
<rect x="28.600" y="16.850" width="15.500" height="4.500" fill="#FFDA00" stroke="none" stroke-width="0"/>
<rect x="28.600" y="16.850" width="15.500" height="4.500" fill="none" stroke="#000000" stroke-width="0.100" />
<text x="36.350" y="18.495"  fill="#000000" text-anchor="middle" font-size="0.80" font-family="sans" font-style="normal" font-weight="400">
The first attribute is: {Element} el</text>
<text x="36.350" y="19.295"  fill="#000000" text-anchor="middle" font-size="0.80" font-family="sans" font-style="normal" font-weight="400">
el = container</text>
<text x="36.350" y="20.095"  fill="#000000" text-anchor="middle" font-size="0.80" font-family="sans" font-style="normal" font-weight="400">
model = el.dataset.model</text>
<rect x="5.766" y="16.900" width="21.784" height="4.500" fill="#FFDA00" stroke="none" stroke-width="0"/>
<rect x="5.766" y="16.900" width="21.784" height="4.500" fill="none" stroke="#000000" stroke-width="0.100" />
<text x="16.658" y="18.545"  fill="#000000" text-anchor="middle" font-size="0.80" font-family="sans" font-style="normal" font-weight="400">
The first attribute is: {Element} container</text>
<text x="16.658" y="19.345"  fill="#000000" text-anchor="middle" font-size="0.80" font-family="sans" font-style="normal" font-weight="400">
el = container.child(&apos;[data-model=&quot;{{model}}&quot;]&apos;)</text>
<text x="16.658" y="20.145"  fill="#000000" text-anchor="middle" font-size="0.80" font-family="sans" font-style="normal" font-weight="400">
model = model</text>
<line x1="26.590" y1="11.730" x2="20.127" y2="16.559" stroke="#000000" stroke-width="0.100" />
<polygon fill="#000000" stroke="none" stroke-width="0.100" points="19.826,16.783 20.077,16.283 20.127,16.559 20.377,16.684 "/>
<polygon fill="none" stroke="#000000" stroke-width="0.100"  points="19.826,16.783 20.077,16.283 20.127,16.559 20.377,16.684 "/>
<rect x="22.647" y="13.907" width="1.032" height="0.748" fill="#FFFFFF" stroke="none" stroke-width="0"/>
<text x="23.163" y="14.502"  fill="#000000" text-anchor="middle" font-size="0.80" font-family="sans" font-style="normal" font-weight="400">
Yes</text>
<rect x="31.563" y="13.990" width="0.872" height="0.748" fill="#FFFFFF" stroke="none" stroke-width="0"/>
<text x="31.999" y="14.585"  fill="#000000" text-anchor="middle" font-size="0.80" font-family="sans" font-style="normal" font-weight="400">
No</text>
<line x1="20.317" y1="21.449" x2="25.676" y2="24.814" stroke="#000000" stroke-width="0.100" />
<polygon fill="#000000" stroke="none" stroke-width="0.100" points="25.994,25.014 25.437,24.960 25.676,24.814 25.703,24.536 "/>
<polygon fill="none" stroke="#000000" stroke-width="0.100"  points="25.994,25.014 25.437,24.960 25.676,24.814 25.703,24.536 "/>
<line x1="33.695" y1="21.400" x2="29.962" y2="24.633" stroke="#000000" stroke-width="0.100" />
<polygon fill="#000000" stroke="none" stroke-width="0.100" points="29.679,24.879 29.893,24.362 29.962,24.633 30.220,24.740 "/>
<polygon fill="none" stroke="#000000" stroke-width="0.100"  points="29.679,24.879 29.893,24.362 29.962,24.633 30.220,24.740 "/>
<ellipse cx="31.389" cy="46.536" rx="3.199" ry="1.494" fill="#FFDA00" stroke="none"  /><ellipse cx="31.389" cy="46.536" rx="3.199" ry="1.494" fill="none" stroke="#000000"  stroke-width="0.100" /><text x="31.389" y="46.731"  fill="#000000" text-anchor="middle" font-size="0.80" font-family="sans" font-style="normal" font-weight="400">
updateView()</text>
<line x1="35.704" y1="41.400" x2="32.857" y2="44.789" stroke="#000000" stroke-width="0.100" />
<polygon fill="#000000" stroke="none" stroke-width="0.100" points="32.615,45.076 32.746,44.533 32.857,44.789 33.129,44.854 "/>
<polygon fill="none" stroke="#000000" stroke-width="0.100"  points="32.615,45.076 32.746,44.533 32.857,44.789 33.129,44.854 "/>
<rect x="30.400" y="53.168" width="13.921" height="2.900" fill="#ADD8E6" stroke="none" stroke-width="0"/>
<rect x="30.400" y="53.168" width="13.921" height="2.900" fill="none" stroke="#000000" stroke-width="0.100" />
<text x="37.361" y="54.813"  fill="#000000" text-anchor="middle" font-size="0.80" font-family="sans" font-style="normal" font-weight="400">
util.mvcSetViewValue(el, val)</text>
</svg>